<?xml version="1.0" standalone="no"?>
<!DOCTYPE svg PUBLIC "-//W3C//DTD SVG 20010904//EN"
 "http://www.w3.org/TR/2001/REC-SVG-20010904/DTD/svg10.dtd">
<svg version="1.0" xmlns="http://www.w3.org/2000/svg"
 width="260.000000pt" height="260.000000pt" viewBox="0 0 260.000000 260.000000"
 preserveAspectRatio="xMidYMid meet">
<metadata>
Created by potrace 1.11, written by Peter Selinger 2001-2013
</metadata>
<g transform="translate(0.000000,260.000000) scale(0.100000,-0.100000)"
fill="#000000" stroke="none">
<path d="M1355 2588 c-11 -6 -45 -31 -77 -55 l-56 -43 -42 35 c-23 19 -46 35
-51 35 -24 0 -93 -44 -134 -85 l-45 -45 -40 26 c-37 25 -41 25 -63 11 -13 -8
-34 -31 -47 -51 -15 -21 -33 -36 -45 -36 -29 0 -130 50 -209 104 -49 34 -72
44 -79 37 -6 -6 -12 -48 -13 -93 -3 -130 56 -321 123 -398 33 -39 34 -54 7
-195 -8 -44 -16 -87 -18 -95 -2 -8 -6 -33 -10 -55 -14 -77 -16 -85 -28 -82
-16 3 -22 -71 -7 -89 6 -7 8 -21 5 -31 -3 -10 -8 -40 -11 -68 -3 -27 -7 -57
-10 -65 -2 -8 -7 -35 -10 -60 -30 -217 -39 -253 -74 -298 -16 -21 -36 -60 -44
-89 -9 -28 -21 -62 -28 -75 l-12 -23 23 20 23 20 -9 -25 c-9 -29 -9 -54 5
-161 10 -83 18 -104 50 -133 12 -11 21 -24 21 -31 0 -7 13 -30 30 -53 16 -22
36 -57 44 -77 16 -37 72 -95 93 -95 7 0 19 -12 27 -28 31 -57 92 -105 166
-127 14 -4 38 -18 53 -31 34 -29 94 -46 167 -49 30 -2 68 -8 84 -14 45 -18
213 -21 271 -6 28 8 75 14 106 13 69 0 126 15 170 45 19 13 60 33 91 46 40 16
77 43 125 91 83 82 176 187 191 216 17 33 42 107 42 128 0 19 0 19 21 0 22
-19 22 -19 10 4 -6 12 -9 22 -6 22 3 0 1 9 -5 20 -8 15 -7 18 2 15 13 -5 30
32 46 98 4 15 12 29 17 30 6 1 9 6 7 11 -2 5 -5 30 -7 56 -7 74 -14 110 -30
141 -8 15 -15 35 -15 43 0 8 -4 16 -9 18 -5 2 -12 19 -15 38 -11 67 -17 95
-31 160 -14 64 -22 106 -32 165 -2 17 -7 41 -10 55 -3 14 -5 51 -4 83 0 35 -5
67 -13 80 -8 12 -18 49 -21 82 -8 64 -9 72 -25 150 -22 110 -21 118 15 156 41
44 87 127 111 199 32 98 19 350 -17 350 -5 0 -38 -24 -74 -52 -35 -29 -93 -67
-127 -85 -60 -30 -63 -31 -75 -13 -8 11 -20 17 -27 14 -9 -4 -16 5 -21 25 -8
36 -21 48 -62 54 -24 4 -44 -3 -84 -28 l-53 -33 -13 25 c-31 59 -140 163 -172
163 -9 0 -25 -6 -36 -12z m-923 -2028 c5 -33 -6 -28 -17 8 -3 12 -2 22 3 22 5
0 12 -14 14 -30z"/>
</g>
</svg>
